# Blender v2.79 (sub 0) OBJ File: 'Blend.blend'
# www.blender.org
o Bowl_Sphere
v 0.802758 0.923887 0.081866
v 0.802758 0.867708 0.086347
v 0.802758 0.789136 0.185524
v 0.848261 0.923887 0.086347
v 0.847386 0.867708 0.090743
v 0.844797 0.822300 0.103760
v 0.840592 0.795796 0.124900
v 0.834933 0.788348 0.153349
v 0.828038 0.789136 0.188014
v 0.820171 0.790096 0.227563
v 0.811635 0.790096 0.270477
v 0.892015 0.923887 0.099620
v 0.890300 0.867708 0.103760
v 0.885221 0.822300 0.116023
v 0.876972 0.795796 0.135936
v 0.865872 0.788348 0.162734
v 0.852346 0.789136 0.195388
v 0.836915 0.790096 0.232643
v 0.820171 0.790096 0.273066
v 0.932339 0.923887 0.121174
v 0.929849 0.867708 0.124900
v 0.922475 0.822300 0.135936
v 0.910501 0.795796 0.153857
v 0.894386 0.788348 0.177975
v 0.874749 0.789136 0.207363
v 0.852346 0.790096 0.240891
v 0.828038 0.790096 0.277271
v 0.967683 0.923887 0.150180
v 0.964514 0.867708 0.153349
v 0.955129 0.822300 0.162734
v 0.939888 0.795796 0.177975
v 0.919378 0.788348 0.198485
v 0.894386 0.789136 0.223478
v 0.865872 0.790096 0.251991
v 0.834933 0.790096 0.282930
v 0.996690 0.923887 0.185524
v 0.992963 0.867708 0.188014
v 0.981927 0.822300 0.195388
v 0.964006 0.795796 0.207363
v 0.939888 0.788348 0.223478
v 0.910501 0.789136 0.243114
v 0.876972 0.790096 0.265517
v 0.840592 0.790096 0.289825
v 1.018243 0.923887 0.225848
v 1.014103 0.867708 0.227563
v 1.001840 0.822300 0.232643
v 0.981927 0.795796 0.240891
v 0.955129 0.788348 0.251991
v 0.922475 0.789136 0.265517
v 0.885221 0.790096 0.280948
v 0.844797 0.790096 0.297692
v 1.031516 0.923887 0.269602
v 1.027120 0.867708 0.270477
v 1.014103 0.822300 0.273066
v 0.992963 0.795796 0.277271
v 0.964514 0.788348 0.282930
v 0.929849 0.789136 0.289825
v 0.890300 0.790096 0.297692
v 0.847386 0.790096 0.306228
v 1.035998 0.923887 0.315105
v 1.031516 0.867708 0.315105
v 1.018243 0.822300 0.315105
v 0.996690 0.795796 0.315105
v 0.967683 0.788348 0.315105
v 0.932339 0.789136 0.315105
v 0.892015 0.790096 0.315105
v 0.848261 0.790096 0.315105
v 0.802758 0.822300 0.117209
v 0.764150 0.822300 0.121012
v 0.761772 0.867708 0.109057
v 1.031516 0.923887 0.360608
v 1.027120 0.867708 0.359734
v 1.014103 0.822300 0.357144
v 0.992963 0.795796 0.352939
v 0.964514 0.788348 0.347281
v 0.929849 0.789136 0.340385
v 0.890300 0.790096 0.332518
v 0.847386 0.790096 0.323982
v 0.760969 0.923887 0.105020
v 0.727026 0.822300 0.132273
v 0.722362 0.867708 0.121012
v 0.692813 0.822300 0.150561
v 1.018243 0.923887 0.404362
v 1.014103 0.867708 0.402647
v 1.001840 0.822300 0.397568
v 0.981927 0.795796 0.389320
v 0.955129 0.788348 0.378219
v 0.922475 0.789136 0.364694
v 0.885221 0.790096 0.349262
v 0.844797 0.790096 0.332518
v 0.686041 0.867708 0.140426
v 0.683754 0.923887 0.137004
v 0.662824 0.822300 0.175172
v 0.654205 0.867708 0.166553
v 0.651295 0.923887 0.163642
v 0.996690 0.923887 0.444686
v 0.992963 0.867708 0.442196
v 0.981927 0.822300 0.434822
v 0.964006 0.795796 0.422848
v 0.939888 0.788348 0.406733
v 0.910501 0.789136 0.387097
v 0.876972 0.790096 0.364694
v 0.840592 0.790096 0.340385
v 0.638213 0.822300 0.205160
v 0.628078 0.867708 0.198388
v 0.624656 0.923887 0.196102
v 0.619926 0.822300 0.239374
v 0.608665 0.867708 0.234709
v 0.604862 0.923887 0.233134
v 0.967683 0.923887 0.480031
v 0.964514 0.867708 0.476862
v 0.955129 0.822300 0.467476
v 0.939888 0.795796 0.452236
v 0.919378 0.788348 0.431725
v 0.894385 0.789136 0.406733
v 0.865872 0.790096 0.378219
v 0.834933 0.790096 0.347281
v 0.608664 0.822300 0.276498
v 0.596709 0.867708 0.274120
v 0.592673 0.923887 0.273317
v 0.604862 0.822300 0.315105
v 0.592673 0.867708 0.315105
v 0.932339 0.923887 0.509037
v 0.929849 0.867708 0.505311
v 0.922475 0.822300 0.494275
v 0.910501 0.795796 0.476354
v 0.894385 0.788348 0.452236
v 0.874749 0.789136 0.422848
v 0.852346 0.790096 0.389320
v 0.828038 0.790096 0.352939
v 0.802758 0.790096 0.315105
v 0.608664 0.822300 0.353713
v 0.596709 0.867708 0.356091
v 0.619926 0.822300 0.390837
v 0.892015 0.923887 0.530591
v 0.890300 0.867708 0.526450
v 0.885221 0.822300 0.514188
v 0.876972 0.795796 0.494275
v 0.865872 0.788348 0.467476
v 0.852346 0.789136 0.434822
v 0.836915 0.790096 0.397568
v 0.820171 0.790096 0.357144
v 0.608664 0.867708 0.395501
v 0.638213 0.822300 0.425050
v 0.628078 0.867708 0.431822
v 0.848261 0.923887 0.543863
v 0.847386 0.867708 0.539468
v 0.844797 0.822300 0.526450
v 0.840592 0.795796 0.505311
v 0.834933 0.788348 0.476862
v 0.828038 0.789136 0.442196
v 0.820171 0.790096 0.402647
v 0.811635 0.790096 0.359734
v 0.662824 0.822300 0.455039
v 0.654205 0.867708 0.463658
v 0.692813 0.822300 0.479650
v 0.686041 0.867708 0.489785
v 0.802758 0.923887 0.548345
v 0.802758 0.867708 0.543863
v 0.802758 0.822300 0.530591
v 0.802758 0.795796 0.509037
v 0.802758 0.788348 0.480031
v 0.802758 0.789136 0.444686
v 0.802758 0.790096 0.404362
v 0.802758 0.790096 0.360608
v 0.727026 0.822300 0.497937
v 0.722362 0.867708 0.509199
v 0.764150 0.822300 0.509199
v 0.761772 0.867708 0.521154
v 0.757255 0.923887 0.543863
v 0.758129 0.867708 0.539468
v 0.760719 0.822300 0.526450
v 0.764924 0.795796 0.505311
v 0.770582 0.788348 0.476862
v 0.777478 0.789136 0.442196
v 0.785345 0.790096 0.402647
v 0.793881 0.790096 0.359734
v 0.802758 0.822300 0.513001
v 0.802758 0.867708 0.525190
v 0.841365 0.822300 0.509199
v 0.713501 0.923887 0.530591
v 0.715216 0.867708 0.526450
v 0.720295 0.822300 0.514188
v 0.728543 0.795796 0.494275
v 0.739644 0.788348 0.467476
v 0.753169 0.789136 0.434822
v 0.768601 0.790096 0.397568
v 0.785345 0.790096 0.357144
v 0.843743 0.867708 0.521154
v 0.878489 0.822300 0.497937
v 0.883154 0.867708 0.509199
v 0.673177 0.923887 0.509037
v 0.675667 0.867708 0.505311
v 0.683041 0.822300 0.494275
v 0.695015 0.795796 0.476353
v 0.711130 0.788348 0.452236
v 0.730767 0.789136 0.422848
v 0.753169 0.790096 0.389320
v 0.777478 0.790096 0.352939
v 0.912703 0.822300 0.479650
v 0.919475 0.867708 0.489785
v 0.942692 0.822300 0.455039
v 0.951311 0.867708 0.463658
v 0.637833 0.923887 0.480031
v 0.641002 0.867708 0.476862
v 0.650387 0.822300 0.467476
v 0.665627 0.795796 0.452236
v 0.686138 0.788348 0.431725
v 0.711130 0.789136 0.406733
v 0.739644 0.790096 0.378219
v 0.770583 0.790096 0.347281
v 0.967302 0.822300 0.425050
v 0.977437 0.867708 0.431822
v 0.985590 0.822300 0.390837
v 0.996851 0.867708 0.395501
v 0.608826 0.923887 0.444686
v 0.612553 0.867708 0.442196
v 0.623588 0.822300 0.434822
v 0.641510 0.795796 0.422848
v 0.665627 0.788348 0.406733
v 0.695015 0.789136 0.387097
v 0.728543 0.790096 0.364694
v 0.764924 0.790096 0.340385
v 0.996851 0.822300 0.353713
v 1.008806 0.867708 0.356091
v 1.000654 0.822300 0.315105
v 1.012843 0.867708 0.315105
v 0.587273 0.923887 0.404362
v 0.591413 0.867708 0.402647
v 0.603675 0.822300 0.397568
v 0.623588 0.795796 0.389320
v 0.650387 0.788348 0.378219
v 0.683041 0.789136 0.364694
v 0.720295 0.790096 0.349262
v 0.760719 0.790096 0.332518
v 1.016959 0.923887 0.315105
v 0.996851 0.822300 0.276498
v 1.008806 0.867708 0.274120
v 1.012843 0.923887 0.273317
v 0.985590 0.822300 0.239374
v 0.574000 0.923887 0.360608
v 0.578395 0.867708 0.359734
v 0.591413 0.822300 0.357144
v 0.612553 0.795796 0.352939
v 0.641002 0.788348 0.347281
v 0.675667 0.789136 0.340385
v 0.715216 0.790096 0.332518
v 0.758129 0.790096 0.323982
v 0.996851 0.867708 0.234709
v 1.000654 0.923887 0.233134
v 0.967302 0.822300 0.205160
v 0.977437 0.867708 0.198388
v 0.980860 0.923887 0.196102
v 0.569518 0.923887 0.315105
v 0.574000 0.867708 0.315105
v 0.587273 0.822300 0.315105
v 0.608826 0.795796 0.315105
v 0.637833 0.788348 0.315105
v 0.673177 0.789136 0.315105
v 0.713501 0.790096 0.315105
v 0.757255 0.790096 0.315105
v 0.942692 0.822300 0.175172
v 0.951311 0.867708 0.166553
v 0.954221 0.923887 0.163642
v 0.912703 0.822300 0.150561
v 0.919475 0.867708 0.140426
v 0.921762 0.923887 0.137004
v 0.574000 0.923887 0.269602
v 0.578395 0.867708 0.270477
v 0.591413 0.822300 0.273066
v 0.612553 0.795796 0.277271
v 0.641002 0.788348 0.282930
v 0.675667 0.789136 0.289825
v 0.715216 0.790096 0.297692
v 0.758129 0.790096 0.306228
v 0.878489 0.822300 0.132273
v 0.883154 0.867708 0.121012
v 0.884729 0.923887 0.117209
v 0.841365 0.822300 0.121012
v 0.843744 0.867708 0.109057
v 0.587273 0.923887 0.225848
v 0.591413 0.867708 0.227563
v 0.603675 0.822300 0.232643
v 0.623589 0.795796 0.240891
v 0.650387 0.788348 0.251991
v 0.683041 0.789136 0.265517
v 0.720295 0.790096 0.280948
v 0.760719 0.790096 0.297692
v 0.844546 0.923887 0.105020
v 0.802758 0.867708 0.105020
v 0.802758 0.923887 0.100904
v 0.720708 0.923887 0.117019
v 0.608826 0.923887 0.185524
v 0.612553 0.867708 0.188014
v 0.623588 0.822300 0.195388
v 0.641510 0.795796 0.207363
v 0.665627 0.788348 0.223478
v 0.695015 0.789136 0.243114
v 0.728543 0.790096 0.265517
v 0.764924 0.790096 0.289825
v 0.588351 0.923887 0.315105
v 0.592471 0.923887 0.356934
v 0.604672 0.923887 0.397155
v 0.624485 0.923887 0.434223
v 0.637833 0.923887 0.150180
v 0.641002 0.867708 0.153349
v 0.650387 0.822300 0.162734
v 0.665628 0.795796 0.177975
v 0.686138 0.788348 0.198485
v 0.711130 0.789136 0.223478
v 0.739644 0.790096 0.251991
v 0.770583 0.790096 0.282930
v 0.651149 0.923887 0.466714
v 0.683640 0.923887 0.493378
v 0.720708 0.923887 0.513191
v 0.760929 0.923887 0.525392
v 0.802758 0.923887 0.529512
v 0.844587 0.923887 0.525392
v 0.884808 0.923887 0.513191
v 0.673177 0.923887 0.121174
v 0.675667 0.867708 0.124900
v 0.683041 0.822300 0.135936
v 0.695015 0.795796 0.153857
v 0.711130 0.788348 0.177975
v 0.730767 0.789136 0.207363
v 0.753169 0.790096 0.240891
v 0.777478 0.790096 0.277271
v 0.921876 0.923887 0.493378
v 0.954366 0.923887 0.466714
v 0.981031 0.923887 0.434223
v 1.000844 0.923887 0.397155
v 1.013045 0.923887 0.356934
v 0.713501 0.923887 0.099620
v 0.715216 0.867708 0.103761
v 0.720295 0.822300 0.116023
v 0.728544 0.795796 0.135936
v 0.739644 0.788348 0.162734
v 0.753169 0.789136 0.195388
v 0.768601 0.790096 0.232643
v 0.785345 0.790096 0.273066
v 0.757255 0.923887 0.086347
v 0.758129 0.867708 0.090743
v 0.760719 0.822300 0.103760
v 0.764924 0.795796 0.124900
v 0.770583 0.788348 0.153349
v 0.777478 0.789136 0.188014
v 0.785345 0.790096 0.227563
v 0.793881 0.790096 0.270477
v 0.802758 0.822300 0.099620
v 0.802758 0.795796 0.121174
v 0.802758 0.788348 0.150180
v 0.802758 0.790096 0.225848
v 0.802758 0.790096 0.269603
v 0.802758 0.795796 0.315105
v 0.802758 0.804341 0.130622
v 0.802758 0.795796 0.147701
v 0.766767 0.804341 0.134167
v 0.770099 0.795796 0.150918
v 0.732159 0.804341 0.144665
v 0.738695 0.795796 0.160444
v 0.700265 0.804341 0.161713
v 0.709753 0.795796 0.175914
v 0.672309 0.804341 0.184656
v 0.684386 0.795796 0.196733
v 0.649366 0.804341 0.212612
v 0.663567 0.795796 0.222101
v 0.632318 0.804341 0.244507
v 0.648097 0.795796 0.251043
v 0.621819 0.804341 0.279114
v 0.638571 0.795796 0.282446
v 0.618275 0.804341 0.315105
v 0.635354 0.795796 0.315105
v 0.621819 0.804341 0.351096
v 0.638571 0.795796 0.347764
v 0.632318 0.804341 0.385704
v 0.648097 0.795796 0.379168
v 0.649366 0.804341 0.417599
v 0.663567 0.795796 0.408110
v 0.672309 0.804341 0.445555
v 0.684385 0.795796 0.433478
v 0.700265 0.804341 0.468497
v 0.709753 0.795796 0.454296
v 0.732159 0.804341 0.485545
v 0.738695 0.795796 0.469766
v 0.766767 0.804341 0.496044
v 0.770099 0.795796 0.479293
v 0.802758 0.804341 0.499588
v 0.802758 0.795796 0.482509
v 0.838749 0.804341 0.496044
v 0.835417 0.795796 0.479293
v 0.873357 0.804341 0.485546
v 0.866821 0.795796 0.469766
v 0.905251 0.804341 0.468497
v 0.895762 0.795796 0.454297
v 0.933207 0.804341 0.445555
v 0.921130 0.795796 0.433478
v 0.956150 0.804341 0.417599
v 0.941949 0.795796 0.408110
v 0.973198 0.804341 0.385704
v 0.957419 0.795796 0.379168
v 0.983696 0.804341 0.351096
v 0.966945 0.795796 0.347764
v 0.970162 0.795796 0.315105
v 0.987241 0.804341 0.315105
v 0.983696 0.804341 0.279114
v 0.966945 0.795796 0.282446
v 0.957419 0.795796 0.251043
v 0.973198 0.804341 0.244507
v 0.956150 0.804341 0.212612
v 0.941949 0.795796 0.222101
v 0.921130 0.795796 0.196733
v 0.933207 0.804341 0.184656
v 0.905251 0.804341 0.161713
v 0.895763 0.795796 0.175914
v 0.866821 0.795796 0.160444
v 0.873357 0.804341 0.144665
v 0.835417 0.795796 0.150918
v 0.838749 0.804341 0.134167
vn 0.0762 -0.6291 -0.7736
vn 0.0245 -0.9683 -0.2486
vn -0.0022 -0.9997 0.0223
vn -0.0023 -0.9997 0.0238
vn 0.0000 -1.0000 0.0000
vn 0.0977 -0.0791 -0.9921
vn 0.0941 -0.2793 -0.9556
vn 0.2787 -0.2793 -0.9189
vn 0.2256 -0.6291 -0.7439
vn 0.0725 -0.9683 -0.2391
vn -0.0065 -0.9997 0.0214
vn -0.0069 -0.9997 0.0229
vn 0.2894 -0.0791 -0.9539
vn -0.0113 -0.9997 0.0211
vn 0.4699 -0.0791 -0.8792
vn 0.4526 -0.2793 -0.8468
vn 0.3664 -0.6291 -0.6855
vn 0.1178 -0.9683 -0.2203
vn -0.0105 -0.9997 0.0197
vn 0.4931 -0.6291 -0.6009
vn 0.1585 -0.9683 -0.1931
vn -0.0142 -0.9997 0.0173
vn -0.0152 -0.9997 0.0185
vn 0.6324 -0.0791 -0.7706
vn 0.6091 -0.2793 -0.7422
vn 0.7706 -0.0791 -0.6324
vn 0.7422 -0.2793 -0.6091
vn 0.6009 -0.6291 -0.4931
vn 0.1931 -0.9683 -0.1585
vn -0.0173 -0.9997 0.0142
vn -0.0185 -0.9997 0.0152
vn 0.6855 -0.6291 -0.3664
vn 0.2203 -0.9683 -0.1178
vn -0.0197 -0.9997 0.0105
vn -0.0211 -0.9997 0.0113
vn 0.8792 -0.0791 -0.4699
vn 0.8468 -0.2793 -0.4526
vn 0.9539 -0.0791 -0.2894
vn 0.9189 -0.2793 -0.2787
vn 0.7439 -0.6291 -0.2256
vn 0.2391 -0.9683 -0.0725
vn -0.0214 -0.9997 0.0065
vn -0.0229 -0.9997 0.0069
vn 0.2486 -0.9683 -0.0245
vn -0.0223 -0.9997 0.0022
vn -0.0238 -0.9997 0.0023
vn 0.9921 -0.0791 -0.0977
vn 0.9556 -0.2793 -0.0941
vn 0.7736 -0.6291 -0.0762
vn 0.9921 -0.0791 0.0977
vn 0.9556 -0.2793 0.0941
vn 0.7736 -0.6291 0.0762
vn 0.2486 -0.9683 0.0245
vn -0.0223 -0.9997 -0.0022
vn -0.0238 -0.9997 -0.0023
vn -0.0214 -0.9997 -0.0065
vn -0.0229 -0.9997 -0.0070
vn 0.9539 -0.0791 0.2894
vn 0.9189 -0.2793 0.2787
vn 0.7439 -0.6291 0.2256
vn 0.2391 -0.9683 0.0725
vn 0.8792 -0.0791 0.4699
vn 0.8468 -0.2793 0.4526
vn 0.6855 -0.6291 0.3664
vn 0.2203 -0.9683 0.1178
vn -0.0197 -0.9997 -0.0105
vn -0.0211 -0.9997 -0.0113
vn -0.0173 -0.9997 -0.0142
vn -0.0185 -0.9997 -0.0152
vn 0.7706 -0.0791 0.6324
vn 0.7422 -0.2793 0.6091
vn 0.6009 -0.6291 0.4931
vn 0.1931 -0.9683 0.1585
vn 0.6091 -0.2793 0.7422
vn 0.4931 -0.6291 0.6009
vn 0.1585 -0.9683 0.1931
vn -0.0142 -0.9997 -0.0173
vn -0.0152 -0.9997 -0.0185
vn 0.6324 -0.0791 0.7706
vn -0.0113 -0.9997 -0.0211
vn 0.4699 -0.0791 0.8792
vn 0.4526 -0.2793 0.8468
vn 0.3664 -0.6291 0.6855
vn 0.1178 -0.9683 0.2203
vn -0.0105 -0.9997 -0.0197
vn 0.2787 -0.2793 0.9189
vn 0.2256 -0.6291 0.7439
vn 0.0725 -0.9683 0.2391
vn -0.0065 -0.9997 -0.0214
vn -0.0069 -0.9997 -0.0229
vn 0.2894 -0.0791 0.9539
vn -0.0023 -0.9997 -0.0238
vn 0.0977 -0.0791 0.9921
vn 0.0941 -0.2793 0.9556
vn 0.0762 -0.6291 0.7736
vn 0.0245 -0.9683 0.2486
vn -0.0022 -0.9997 -0.0223
vn -0.0762 -0.6291 0.7736
vn -0.0000 1.0000 0.0000
vn -0.0245 -0.9683 0.2486
vn 0.0947 0.2581 0.9615
vn 0.0022 -0.9997 -0.0223
vn 0.0978 0.0727 0.9925
vn 0.0023 -0.9997 -0.0238
vn 0.2804 0.2581 0.9245
vn 0.2848 0.0763 0.9556
vn -0.0977 -0.0791 0.9921
vn 0.4554 0.2581 0.8520
vn -0.0941 -0.2793 0.9556
vn 0.4701 0.0727 0.8796
vn -0.2894 -0.0791 0.9539
vn 0.6129 0.2581 0.7468
vn -0.2787 -0.2793 0.9189
vn 0.6327 0.0727 0.7710
vn -0.2256 -0.6291 0.7439
vn 0.7468 0.2581 0.6129
vn -0.0725 -0.9683 0.2391
vn 0.7710 0.0727 0.6327
vn 0.0065 -0.9997 -0.0214
vn 0.0069 -0.9997 -0.0229
vn 0.8520 0.2581 0.4554
vn -0.1178 -0.9683 0.2203
vn 0.8796 0.0727 0.4701
vn 0.0105 -0.9997 -0.0197
vn 0.9544 0.0727 0.2895
vn 0.0113 -0.9997 -0.0211
vn 0.9245 0.2581 0.2805
vn -0.4699 -0.0791 0.8792
vn 0.9615 0.2581 0.0947
vn -0.4526 -0.2793 0.8468
vn 0.9918 0.0763 0.1026
vn -0.3664 -0.6291 0.6855
vn 0.9615 0.2581 -0.0947
vn -0.6324 -0.0791 0.7706
vn 0.9923 0.0763 -0.0977
vn -0.6091 -0.2793 0.7422
vn -0.4931 -0.6291 0.6009
vn 0.9245 0.2581 -0.2805
vn -0.1585 -0.9683 0.1931
vn 0.9541 0.0763 -0.2894
vn 0.0142 -0.9997 -0.0173
vn 0.0152 -0.9997 -0.0185
vn 0.8520 0.2581 -0.4554
vn -0.1931 -0.9683 0.1585
vn 0.8793 0.0763 -0.4700
vn 0.0173 -0.9997 -0.0142
vn 0.0185 -0.9997 -0.0152
vn 0.7468 0.2581 -0.6129
vn 0.7708 0.0763 -0.6325
vn -0.7706 -0.0791 0.6324
vn 0.6129 0.2581 -0.7468
vn -0.7422 -0.2793 0.6091
vn 0.6325 0.0763 -0.7708
vn -0.6009 -0.6291 0.4931
vn 0.4554 0.2581 -0.8520
vn -0.8792 -0.0791 0.4699
vn 0.4700 0.0763 -0.8793
vn -0.8468 -0.2793 0.4526
vn -0.6855 -0.6291 0.3664
vn 0.2805 0.2581 -0.9245
vn -0.2203 -0.9683 0.1178
vn 0.2894 0.0763 -0.9541
vn 0.0197 -0.9997 -0.0105
vn 0.0947 0.2581 -0.9615
vn 0.0211 -0.9997 -0.0113
vn 0.0977 0.0763 -0.9923
vn 0.0214 -0.9997 -0.0065
vn -0.0947 0.2581 -0.9615
vn 0.0229 -0.9997 -0.0069
vn -0.0977 0.0763 -0.9923
vn -0.2894 0.0763 -0.9541
vn -0.9539 -0.0791 0.2894
vn -0.2805 0.2581 -0.9245
vn -0.9189 -0.2793 0.2787
vn -0.7439 -0.6291 0.2256
vn -0.4554 0.2581 -0.8520
vn -0.2391 -0.9683 0.0725
vn -0.9921 -0.0791 0.0977
vn -0.4700 0.0763 -0.8793
vn -0.9556 -0.2793 0.0941
vn -0.6325 0.0763 -0.7708
vn -0.7736 -0.6291 0.0762
vn -0.2486 -0.9683 0.0245
vn -0.6129 0.2581 -0.7468
vn 0.0223 -0.9997 -0.0022
vn 0.0238 -0.9997 -0.0023
vn -0.7468 0.2581 -0.6129
vn -0.7708 0.0763 -0.6325
vn 0.0223 -0.9997 0.0022
vn -0.4701 0.0727 0.8796
vn 0.0238 -0.9997 0.0023
vn -0.9541 0.0763 -0.2894
vn -0.8520 0.2581 -0.4554
vn -0.9245 0.2581 0.2804
vn -0.9921 -0.0791 -0.0977
vn -0.2895 0.0727 0.9544
vn -0.9556 -0.2793 -0.0941
vn -0.7736 -0.6291 -0.0762
vn -0.7710 0.0727 0.6327
vn -0.2486 -0.9683 -0.0245
vn -0.9544 0.0727 0.2895
vn -0.9189 -0.2793 -0.2787
vn -0.9615 0.2581 -0.0947
vn -0.7439 -0.6291 -0.2256
vn -0.2391 -0.9683 -0.0725
vn -0.9926 0.0727 -0.0978
vn 0.0214 -0.9997 0.0065
vn -0.6129 0.2581 0.7468
vn 0.0229 -0.9997 0.0069
vn -0.8520 0.2581 0.4554
vn -0.2805 0.2581 0.9245
vn -0.9539 -0.0791 -0.2894
vn -0.6327 0.0727 0.7710
vn 0.0211 -0.9997 0.0113
vn -0.8796 0.0727 0.4701
vn -0.0947 0.2581 0.9615
vn -0.9615 0.2581 0.0947
vn -0.8792 -0.0791 -0.4699
vn -0.8468 -0.2793 -0.4526
vn -0.8793 0.0763 -0.4700
vn -0.6855 -0.6291 -0.3664
vn -0.2203 -0.9683 -0.1178
vn -0.0978 0.0727 0.9926
vn 0.0197 -0.9997 0.0105
vn -0.9926 0.0727 0.0978
vn -0.6009 -0.6291 -0.4931
vn -0.1931 -0.9683 -0.1585
vn 0.0173 -0.9997 0.0142
vn 0.0185 -0.9997 0.0152
vn -0.4554 0.2581 0.8520
vn -0.9245 0.2581 -0.2804
vn -0.7706 -0.0791 -0.6324
vn -0.7468 0.2581 0.6129
vn -0.7422 -0.2793 -0.6091
vn -0.6324 -0.0791 -0.7706
vn -0.6091 -0.2793 -0.7422
vn -0.4931 -0.6291 -0.6009
vn -0.1585 -0.9683 -0.1931
vn 0.0142 -0.9997 0.0173
vn 0.0152 -0.9997 0.0185
vn -0.3664 -0.6291 -0.6855
vn -0.1178 -0.9683 -0.2203
vn 0.0105 -0.9997 0.0197
vn 0.0113 -0.9997 0.0211
vn -0.4699 -0.0791 -0.8792
vn -0.4526 -0.2793 -0.8468
vn -0.2894 -0.0791 -0.9539
vn -0.2787 -0.2793 -0.9189
vn -0.2256 -0.6291 -0.7439
vn -0.0725 -0.9683 -0.2391
vn 0.0065 -0.9997 0.0214
vn 0.0069 -0.9997 0.0229
vn -0.0245 -0.9683 -0.2486
vn 0.0022 -0.9997 0.0223
vn 0.0023 -0.9997 0.0238
vn -0.0977 -0.0791 -0.9921
vn -0.0941 -0.2793 -0.9556
vn -0.0762 -0.6291 -0.7736
vn 0.7078 0.5965 -0.3783
vn -0.5092 0.5965 0.6204
vn 0.7680 0.5965 0.2330
vn 0.7987 0.5965 -0.0787
vn 0.5092 0.5965 0.6204
vn -0.2330 0.5965 0.7680
vn -0.7680 0.5965 -0.2330
vn 0.2330 0.5965 0.7680
vn -0.7680 0.5965 0.2330
vn -0.3783 0.5965 0.7078
vn -0.6204 0.5965 -0.5092
vn 0.0787 0.5965 -0.7987
vn 0.7078 0.5965 0.3783
vn -0.6204 0.5965 0.5092
vn 0.3783 0.5965 -0.7078
vn -0.3783 0.5965 -0.7078
vn 0.7987 0.5965 0.0787
vn -0.7987 0.5965 -0.0787
vn 0.7680 0.5965 -0.2330
vn -0.7078 0.5965 -0.3783
vn -0.7078 0.5965 0.3783
vn -0.0787 0.5965 -0.7987
vn 0.6204 0.5965 -0.5092
vn -0.7987 0.5965 0.0787
vn 0.3783 0.5965 0.7078
vn -0.5092 0.5965 -0.6204
vn 0.2330 0.5965 -0.7680
vn 0.6204 0.5965 0.5092
vn 0.0787 0.5965 0.7987
vn 0.5092 0.5965 -0.6204
vn -0.0787 0.5965 0.7987
vn -0.2330 0.5965 -0.7680
vn -0.0440 0.8935 0.4470
vn 0.0440 0.8935 0.4470
vn 0.1304 0.8935 0.4298
vn 0.2117 0.8935 0.3961
vn 0.2849 0.8935 0.3472
vn 0.3472 0.8935 0.2849
vn 0.3961 0.8935 0.2117
vn 0.4298 0.8935 0.1304
vn 0.4470 0.8935 0.0440
vn 0.4470 0.8935 -0.0440
vn 0.4298 0.8935 -0.1304
vn 0.3961 0.8935 -0.2117
vn 0.3472 0.8935 -0.2849
vn 0.2849 0.8935 -0.3472
vn 0.2117 0.8935 -0.3961
vn 0.1304 0.8935 -0.4298
vn 0.0440 0.8935 -0.4470
vn -0.0440 0.8935 -0.4470
vn -0.1304 0.8935 -0.4298
vn -0.2117 0.8935 -0.3961
vn -0.2849 0.8935 -0.3472
vn -0.3472 0.8935 -0.2849
vn -0.3961 0.8935 -0.2117
vn -0.4298 0.8935 -0.1304
vn -0.1304 0.8935 0.4298
vn -0.3961 0.8935 0.2117
vn -0.4470 0.8935 0.0440
vn -0.2849 0.8935 0.3472
vn -0.4298 0.8935 0.1304
vn -0.3472 0.8935 0.2849
vn -0.2117 0.8935 0.3961
vn -0.4470 0.8935 -0.0440
vn -0.0229 -0.9997 -0.0069
vn 0.2895 0.0727 0.9544
vn 0.4743 0.0763 0.8770
vn 0.0070 -0.9997 -0.0229
vn 0.8796 0.0727 0.4702
vn 0.9926 0.0727 0.0978
vn -0.2804 0.2581 -0.9245
vn -0.9245 0.2581 0.2805
vn -0.9927 0.0763 -0.0929
vn -0.2804 0.2581 0.9245
vn -0.9245 0.2581 -0.2805
s off
f 349//1 7//1 350//1
f 350//2 8//2 351//2
f 351//3 9//3 3//3
f 3//4 10//4 352//4
f 352//5 11//5 353//5
f 131//5 353//5 11//5
f 2//6 4//6 5//6
f 2//7 6//7 349//7
f 5//8 14//8 6//8
f 6//9 15//9 7//9
f 8//10 15//10 16//10
f 8//11 17//11 9//11
f 9//12 18//12 10//12
f 10//5 19//5 11//5
f 131//5 11//5 19//5
f 4//13 13//13 5//13
f 18//14 25//14 26//14
f 19//5 26//5 27//5
f 131//5 19//5 27//5
f 12//15 21//15 13//15
f 13//16 22//16 14//16
f 15//17 22//17 23//17
f 15//18 24//18 16//18
f 16//19 25//19 17//19
f 23//20 30//20 31//20
f 24//21 31//21 32//21
f 25//22 32//22 33//22
f 25//23 34//23 26//23
f 26//5 35//5 27//5
f 131//5 27//5 35//5
f 20//24 29//24 21//24
f 21//25 30//25 22//25
f 34//5 43//5 35//5
f 131//5 35//5 43//5
f 28//26 37//26 29//26
f 29//27 38//27 30//27
f 31//28 38//28 39//28
f 31//29 40//29 32//29
f 33//30 40//30 41//30
f 33//31 42//31 34//31
f 39//32 46//32 47//32
f 39//33 48//33 40//33
f 40//34 49//34 41//34
f 41//35 50//35 42//35
f 43//5 50//5 51//5
f 131//5 43//5 51//5
f 36//36 45//36 37//36
f 37//37 46//37 38//37
f 50//5 59//5 51//5
f 131//5 51//5 59//5
f 45//38 52//38 53//38
f 45//39 54//39 46//39
f 47//40 54//40 55//40
f 48//41 55//41 56//41
f 49//42 56//42 57//42
f 49//43 58//43 50//43
f 56//44 63//44 64//44
f 56//45 65//45 57//45
f 58//46 65//46 66//46
f 58//5 67//5 59//5
f 131//5 59//5 67//5
f 52//47 61//47 53//47
f 53//48 62//48 54//48
f 55//49 62//49 63//49
f 131//5 67//5 78//5
f 60//50 72//50 61//50
f 61//51 73//51 62//51
f 63//52 73//52 74//52
f 63//53 75//53 64//53
f 65//54 75//54 76//54
f 65//55 77//55 66//55
f 67//5 77//5 78//5
f 76//56 87//56 88//56
f 76//57 89//57 77//57
f 77//5 90//5 78//5
f 131//5 78//5 90//5
f 72//58 83//58 84//58
f 72//59 85//59 73//59
f 74//60 85//60 86//60
f 74//61 87//61 75//61
f 84//62 96//62 97//62
f 84//63 98//63 85//63
f 86//64 98//64 99//64
f 86//65 100//65 87//65
f 87//66 101//66 88//66
f 88//67 102//67 89//67
f 90//5 102//5 103//5
f 131//5 90//5 103//5
f 101//68 114//68 115//68
f 102//69 115//69 116//69
f 103//5 116//5 117//5
f 131//5 103//5 117//5
f 96//70 111//70 97//70
f 97//71 112//71 98//71
f 99//72 112//72 113//72
f 99//73 114//73 100//73
f 111//74 125//74 112//74
f 113//75 125//75 126//75
f 113//76 127//76 114//76
f 115//77 127//77 128//77
f 116//78 128//78 129//78
f 117//5 129//5 130//5
f 131//5 117//5 130//5
f 110//79 124//79 111//79
f 129//80 140//80 141//80
f 130//5 141//5 142//5
f 131//5 130//5 142//5
f 124//81 135//81 136//81
f 124//82 137//82 125//82
f 126//83 137//83 138//83
f 127//84 138//84 139//84
f 128//85 139//85 140//85
f 136//86 148//86 137//86
f 138//87 148//87 149//87
f 138//88 150//88 139//88
f 139//89 151//89 140//89
f 140//90 152//90 141//90
f 141//5 153//5 142//5
f 131//5 142//5 153//5
f 135//91 147//91 136//91
f 152//92 163//92 164//92
f 153//5 164//5 165//5
f 131//5 153//5 165//5
f 146//93 159//93 147//93
f 147//94 160//94 148//94
f 149//95 160//95 161//95
f 149//96 162//96 150//96
f 150//97 163//97 151//97
f 161//98 172//98 173//98
f 358//99 360//99 354//99
f 161//100 174//100 162//100
f 68//101 70//101 69//101
f 162//102 175//102 163//102
f 290//103 79//103 70//103
f 164//104 175//104 176//104
f 360//99 362//99 354//99
f 165//5 176//5 177//5
f 69//105 81//105 80//105
f 81//106 79//106 292//106
f 131//5 165//5 177//5
f 158//107 171//107 159//107
f 80//108 91//108 82//108
f 159//109 172//109 160//109
f 81//110 92//110 91//110
f 177//5 187//5 188//5
f 362//99 364//99 354//99
f 364//99 366//99 354//99
f 131//5 177//5 188//5
f 170//111 182//111 171//111
f 82//112 94//112 93//112
f 171//113 183//113 172//113
f 91//114 95//114 94//114
f 173//115 183//115 184//115
f 93//116 105//116 104//116
f 173//117 185//117 174//117
f 94//118 106//118 105//118
f 174//119 186//119 175//119
f 366//99 368//99 354//99
f 175//120 187//120 176//120
f 368//99 370//99 354//99
f 104//121 108//121 107//121
f 184//122 196//122 185//122
f 105//123 109//123 108//123
f 186//124 196//124 197//124
f 119//125 109//125 120//125
f 186//126 198//126 187//126
f 370//99 372//99 354//99
f 187//5 199//5 188//5
f 107//127 119//127 118//127
f 372//99 374//99 354//99
f 131//5 188//5 199//5
f 181//128 193//128 182//128
f 118//129 122//129 121//129
f 182//130 194//130 183//130
f 122//131 120//131 301//131
f 184//132 194//132 195//132
f 374//99 376//99 354//99
f 121//133 133//133 132//133
f 131//5 199//5 211//5
f 192//134 205//134 193//134
f 133//135 301//135 302//135
f 193//136 206//136 194//136
f 376//99 378//99 354//99
f 195//137 206//137 207//137
f 132//138 143//138 134//138
f 195//139 208//139 196//139
f 143//140 302//140 303//140
f 197//141 208//141 209//141
f 378//99 380//99 354//99
f 198//142 209//142 210//142
f 134//143 145//143 144//143
f 198//5 211//5 199//5
f 207//144 220//144 208//144
f 143//145 304//145 145//145
f 208//146 221//146 209//146
f 380//99 382//99 354//99
f 210//147 221//147 222//147
f 144//148 155//148 154//148
f 211//5 222//5 223//5
f 145//149 313//149 155//149
f 382//99 384//99 354//99
f 131//5 211//5 223//5
f 204//150 217//150 205//150
f 154//151 157//151 156//151
f 205//152 218//152 206//152
f 155//153 314//153 157//153
f 207//154 218//154 219//154
f 384//99 386//99 354//99
f 156//155 167//155 166//155
f 131//5 223//5 235//5
f 216//156 229//156 217//156
f 157//157 315//157 167//157
f 217//158 230//158 218//158
f 386//99 388//99 354//99
f 219//159 230//159 231//159
f 166//160 169//160 168//160
f 219//161 232//161 220//161
f 167//162 316//162 169//162
f 221//163 232//163 233//163
f 168//164 179//164 178//164
f 221//165 234//165 222//165
f 169//166 317//166 179//166
f 223//5 234//5 235//5
f 388//99 390//99 354//99
f 390//99 392//99 354//99
f 232//167 246//167 233//167
f 178//168 189//168 180//168
f 233//169 247//169 234//169
f 179//170 318//170 189//170
f 234//5 248//5 235//5
f 189//171 319//171 191//171
f 392//99 394//99 354//99
f 131//5 235//5 248//5
f 229//172 241//172 242//172
f 180//173 191//173 190//173
f 229//174 243//174 230//174
f 394//99 396//99 354//99
f 231//175 243//175 244//175
f 190//176 201//176 200//176
f 231//177 245//177 232//177
f 241//178 255//178 242//178
f 191//179 328//179 201//179
f 242//180 256//180 243//180
f 201//181 329//181 203//181
f 244//182 256//182 257//182
f 396//99 398//99 354//99
f 244//183 258//183 245//183
f 200//184 203//184 202//184
f 245//185 259//185 246//185
f 398//99 400//99 354//99
f 246//186 260//186 247//186
f 202//187 213//187 212//187
f 247//5 261//5 248//5
f 213//188 329//188 330//188
f 400//99 402//99 354//99
f 131//5 248//5 261//5
f 259//189 272//189 273//189
f 266//190 278//190 277//190
f 259//191 274//191 260//191
f 225//192 331//192 332//192
f 260//5 275//5 261//5
f 212//193 215//193 214//193
f 237//194 249//194 240//194
f 131//5 261//5 275//5
f 255//195 268//195 269//195
f 280//196 278//196 289//196
f 255//197 270//197 256//197
f 403//99 406//99 354//99
f 257//198 270//198 271//198
f 252//199 264//199 263//199
f 257//200 272//200 258//200
f 249//201 239//201 250//201
f 269//202 283//202 270//202
f 224//203 227//203 226//203
f 271//204 283//204 284//204
f 271//205 285//205 272//205
f 225//206 236//206 227//206
f 273//207 285//207 286//207
f 262//208 266//208 265//208
f 274//209 286//209 287//209
f 240//210 252//210 251//210
f 274//5 288//5 275//5
f 279//211 277//211 280//211
f 406//99 407//99 354//99
f 131//5 275//5 288//5
f 269//212 281//212 282//212
f 263//213 267//213 266//213
f 287//214 298//214 299//214
f 252//215 250//215 253//215
f 287//5 300//5 288//5
f 279//216 290//216 68//216
f 226//217 238//217 237//217
f 131//5 288//5 300//5
f 282//218 293//218 294//218
f 414//99 415//99 354//99
f 282//219 295//219 283//219
f 213//220 331//220 215//220
f 284//221 295//221 296//221
f 410//99 411//99 354//99
f 284//222 297//222 285//222
f 290//223 289//223 291//223
f 286//224 297//224 298//224
f 227//225 239//225 238//225
f 415//99 417//99 354//99
f 296//226 307//226 308//226
f 402//99 403//99 354//99
f 296//227 309//227 297//227
f 411//99 414//99 354//99
f 298//228 309//228 310//228
f 356//99 358//99 354//99
f 299//229 310//229 311//229
f 407//99 410//99 354//99
f 299//5 312//5 300//5
f 265//230 277//230 276//230
f 214//231 225//231 224//231
f 131//5 300//5 312//5
f 293//232 306//232 294//232
f 251//233 263//233 262//233
f 294//234 307//234 295//234
f 96//99 329//99 110//99
f 311//5 327//5 312//5
f 192//99 313//99 204//99
f 281//99 120//99 109//99
f 131//5 312//5 327//5
f 305//235 321//235 306//235
f 341//99 292//99 79//99
f 306//236 322//236 307//236
f 12//99 289//99 278//99
f 308//237 322//237 323//237
f 44//99 239//99 52//99
f 308//238 324//238 309//238
f 204//99 304//99 216//99
f 309//239 325//239 310//239
f 123//99 329//99 328//99
f 311//240 325//240 326//240
f 323//241 335//241 336//241
f 71//99 331//99 83//99
f 323//242 337//242 324//242
f 320//99 95//99 92//99
f 324//243 338//243 325//243
f 170//99 315//99 181//99
f 325//244 339//244 326//244
f 254//99 302//99 301//99
f 326//5 340//5 327//5
f 36//99 264//99 253//99
f 146//99 317//99 158//99
f 131//5 327//5 340//5
f 320//245 334//245 321//245
f 1//99 289//99 4//99
f 321//246 335//246 322//246
f 52//99 236//99 60//99
f 339//5 348//5 340//5
f 228//99 304//99 303//99
f 293//99 109//99 106//99
f 131//5 340//5 348//5
f 333//247 342//247 334//247
f 181//99 314//99 192//99
f 334//248 343//248 335//248
f 320//99 292//99 333//99
f 336//249 343//249 344//249
f 83//99 330//99 96//99
f 336//250 345//250 337//250
f 20//99 278//99 267//99
f 338//251 345//251 346//251
f 123//99 319//99 135//99
f 339//252 346//252 347//252
f 36//99 250//99 44//99
f 268//99 301//99 120//99
f 344//253 351//253 345//253
f 60//99 332//99 71//99
f 345//254 3//254 346//254
f 158//99 316//99 170//99
f 346//255 352//255 347//255
f 305//99 106//99 95//99
f 347//5 353//5 348//5
f 341//99 291//99 1//99
f 28//99 267//99 264//99
f 131//5 348//5 353//5
f 341//256 2//256 342//256
f 241//99 303//99 302//99
f 342//257 349//257 343//257
f 135//99 318//99 146//99
f 344//258 349//258 350//258
f 377//259 134//259 144//259
f 412//260 265//260 413//260
f 369//261 107//261 118//261
f 373//262 121//262 132//262
f 363//263 82//263 93//263
f 418//264 276//264 279//264
f 401//265 214//265 224//265
f 359//266 69//266 80//266
f 408//267 237//267 240//267
f 413//268 276//268 416//268
f 397//269 202//269 212//269
f 387//270 168//270 178//270
f 367//271 104//271 107//271
f 412//272 251//272 262//272
f 383//273 156//273 166//273
f 393//274 190//274 200//274
f 371//275 118//275 121//275
f 404//276 224//276 226//276
f 375//277 132//277 134//277
f 399//278 212//278 214//278
f 409//279 240//279 251//279
f 389//280 178//280 180//280
f 379//281 144//281 154//281
f 405//282 226//282 237//282
f 361//283 80//283 82//283
f 395//284 200//284 202//284
f 385//285 166//285 168//285
f 365//286 93//286 104//286
f 357//287 68//287 69//287
f 381//288 154//288 156//288
f 418//289 68//289 355//289
f 391//290 180//290 190//290
f 355//291 417//291 418//291
f 358//292 355//292 357//292
f 357//293 360//293 358//293
f 359//294 362//294 360//294
f 361//295 364//295 362//295
f 363//296 366//296 364//296
f 365//297 368//297 366//297
f 367//298 370//298 368//298
f 369//299 372//299 370//299
f 371//300 374//300 372//300
f 373//301 376//301 374//301
f 375//302 378//302 376//302
f 380//303 377//303 379//303
f 379//304 382//304 380//304
f 382//305 383//305 384//305
f 383//306 386//306 384//306
f 385//307 388//307 386//307
f 387//308 390//308 388//308
f 389//309 392//309 390//309
f 391//310 394//310 392//310
f 393//311 396//311 394//311
f 395//312 398//312 396//312
f 397//313 400//313 398//313
f 399//314 402//314 400//314
f 416//315 417//315 415//315
f 408//316 410//316 407//316
f 403//317 405//317 406//317
f 412//318 414//318 411//318
f 405//319 407//319 406//319
f 409//320 411//320 410//320
f 413//321 415//321 414//321
f 401//322 403//322 402//322
f 417//99 356//99 354//99
f 349//1 6//1 7//1
f 350//2 7//2 8//2
f 351//3 8//3 9//3
f 3//4 9//4 10//4
f 352//5 10//5 11//5
f 2//6 1//6 4//6
f 2//7 5//7 6//7
f 5//8 13//8 14//8
f 6//9 14//9 15//9
f 8//10 7//10 15//10
f 8//11 16//11 17//11
f 9//12 17//12 18//12
f 10//5 18//5 19//5
f 4//13 12//13 13//13
f 18//14 17//14 25//14
f 19//5 18//5 26//5
f 12//15 20//15 21//15
f 13//16 21//16 22//16
f 15//17 14//17 22//17
f 15//18 23//18 24//18
f 16//19 24//19 25//19
f 23//20 22//20 30//20
f 24//21 23//21 31//21
f 25//22 24//22 32//22
f 25//23 33//23 34//23
f 26//5 34//5 35//5
f 20//24 28//24 29//24
f 21//25 29//25 30//25
f 34//5 42//5 43//5
f 28//26 36//26 37//26
f 29//27 37//27 38//27
f 31//28 30//28 38//28
f 31//29 39//29 40//29
f 33//30 32//30 40//30
f 33//31 41//31 42//31
f 39//32 38//32 46//32
f 39//33 47//33 48//33
f 40//34 48//34 49//34
f 41//35 49//35 50//35
f 43//5 42//5 50//5
f 36//36 44//36 45//36
f 37//37 45//37 46//37
f 50//5 58//5 59//5
f 45//38 44//38 52//38
f 45//39 53//39 54//39
f 47//40 46//40 54//40
f 48//41 47//41 55//41
f 49//42 48//42 56//42
f 49//43 57//43 58//43
f 56//44 55//44 63//44
f 56//45 64//45 65//45
f 58//46 57//46 65//46
f 58//5 66//5 67//5
f 52//47 60//47 61//47
f 53//48 61//48 62//48
f 55//49 54//49 62//49
f 60//50 71//50 72//50
f 61//51 72//51 73//51
f 63//52 62//52 73//52
f 63//53 74//53 75//53
f 65//54 64//54 75//54
f 65//55 76//55 77//55
f 67//5 66//5 77//5
f 76//56 75//56 87//56
f 76//323 88//323 89//323
f 77//5 89//5 90//5
f 72//58 71//58 83//58
f 72//59 84//59 85//59
f 74//60 73//60 85//60
f 74//61 86//61 87//61
f 84//62 83//62 96//62
f 84//63 97//63 98//63
f 86//64 85//64 98//64
f 86//65 99//65 100//65
f 87//66 100//66 101//66
f 88//67 101//67 102//67
f 90//5 89//5 102//5
f 101//68 100//68 114//68
f 102//69 101//69 115//69
f 103//5 102//5 116//5
f 96//70 110//70 111//70
f 97//71 111//71 112//71
f 99//72 98//72 112//72
f 99//73 113//73 114//73
f 111//74 124//74 125//74
f 113//75 112//75 125//75
f 113//76 126//76 127//76
f 115//77 114//77 127//77
f 116//78 115//78 128//78
f 117//5 116//5 129//5
f 110//79 123//79 124//79
f 129//80 128//80 140//80
f 130//5 129//5 141//5
f 124//81 123//81 135//81
f 124//82 136//82 137//82
f 126//83 125//83 137//83
f 127//84 126//84 138//84
f 128//85 127//85 139//85
f 136//86 147//86 148//86
f 138//87 137//87 148//87
f 138//88 149//88 150//88
f 139//89 150//89 151//89
f 140//90 151//90 152//90
f 141//5 152//5 153//5
f 135//91 146//91 147//91
f 152//92 151//92 163//92
f 153//5 152//5 164//5
f 146//93 158//93 159//93
f 147//94 159//94 160//94
f 149//95 148//95 160//95
f 149//96 161//96 162//96
f 150//97 162//97 163//97
f 161//98 160//98 172//98
f 161//100 173//100 174//100
f 68//101 290//101 70//101
f 162//102 174//102 175//102
f 290//103 291//103 79//103
f 164//104 163//104 175//104
f 165//5 164//5 176//5
f 69//105 70//105 81//105
f 81//324 70//324 79//324
f 158//107 170//107 171//107
f 80//108 81//108 91//108
f 159//109 171//109 172//109
f 81//325 292//325 92//325
f 177//5 176//5 187//5
f 170//111 181//111 182//111
f 82//112 91//112 94//112
f 171//113 182//113 183//113
f 91//114 92//114 95//114
f 173//115 172//115 183//115
f 93//116 94//116 105//116
f 173//117 184//117 185//117
f 94//118 95//118 106//118
f 174//119 185//119 186//119
f 175//326 186//326 187//326
f 104//121 105//121 108//121
f 184//122 195//122 196//122
f 105//327 106//327 109//327
f 186//124 185//124 196//124
f 119//125 108//125 109//125
f 186//126 197//126 198//126
f 187//5 198//5 199//5
f 107//127 108//127 119//127
f 181//128 192//128 193//128
f 118//129 119//129 122//129
f 182//130 193//130 194//130
f 122//328 119//328 120//328
f 184//132 183//132 194//132
f 121//133 122//133 133//133
f 192//134 204//134 205//134
f 133//135 122//135 301//135
f 193//136 205//136 206//136
f 195//137 194//137 206//137
f 132//138 133//138 143//138
f 195//139 207//139 208//139
f 143//140 133//140 302//140
f 197//141 196//141 208//141
f 198//142 197//142 209//142
f 134//143 143//143 145//143
f 198//5 210//5 211//5
f 207//144 219//144 220//144
f 143//145 303//145 304//145
f 208//146 220//146 221//146
f 210//147 209//147 221//147
f 144//148 145//148 155//148
f 211//5 210//5 222//5
f 145//149 304//149 313//149
f 204//150 216//150 217//150
f 154//151 155//151 157//151
f 205//152 217//152 218//152
f 155//153 313//153 314//153
f 207//154 206//154 218//154
f 156//155 157//155 167//155
f 216//156 228//156 229//156
f 157//157 314//157 315//157
f 217//158 229//158 230//158
f 219//159 218//159 230//159
f 166//160 167//160 169//160
f 219//161 231//161 232//161
f 167//162 315//162 316//162
f 221//163 220//163 232//163
f 168//164 169//164 179//164
f 221//165 233//165 234//165
f 169//166 316//166 317//166
f 223//5 222//5 234//5
f 232//167 245//167 246//167
f 178//168 179//168 189//168
f 233//169 246//169 247//169
f 179//170 317//170 318//170
f 234//5 247//5 248//5
f 189//171 318//171 319//171
f 229//172 228//172 241//172
f 180//329 189//329 191//329
f 229//174 242//174 243//174
f 231//175 230//175 243//175
f 190//176 191//176 201//176
f 231//177 244//177 245//177
f 241//178 254//178 255//178
f 191//179 319//179 328//179
f 242//180 255//180 256//180
f 201//181 328//181 329//181
f 244//182 243//182 256//182
f 244//183 257//183 258//183
f 200//184 201//184 203//184
f 245//185 258//185 259//185
f 246//186 259//186 260//186
f 202//187 203//187 213//187
f 247//5 260//5 261//5
f 213//188 203//188 329//188
f 259//189 258//189 272//189
f 266//190 267//190 278//190
f 259//191 273//191 274//191
f 225//192 215//192 331//192
f 260//5 274//5 275//5
f 212//193 213//193 215//193
f 237//330 238//330 249//330
f 255//195 254//195 268//195
f 280//196 277//196 278//196
f 255//197 269//197 270//197
f 257//198 256//198 270//198
f 252//199 253//199 264//199
f 257//200 271//200 272//200
f 249//201 238//201 239//201
f 269//202 282//202 283//202
f 224//203 225//203 227//203
f 271//204 270//204 283//204
f 271//205 284//205 285//205
f 225//331 332//331 236//331
f 273//207 272//207 285//207
f 262//208 263//208 266//208
f 274//209 273//209 286//209
f 240//210 249//210 252//210
f 274//5 287//5 288//5
f 279//332 276//332 277//332
f 269//212 268//212 281//212
f 263//213 264//213 267//213
f 287//214 286//214 298//214
f 252//215 249//215 250//215
f 287//5 299//5 300//5
f 279//216 280//216 290//216
f 226//217 227//217 238//217
f 282//218 281//218 293//218
f 282//219 294//219 295//219
f 213//220 330//220 331//220
f 284//221 283//221 295//221
f 284//222 296//222 297//222
f 290//223 280//223 289//223
f 286//224 285//224 297//224
f 227//225 236//225 239//225
f 296//226 295//226 307//226
f 296//227 308//227 309//227
f 298//228 297//228 309//228
f 299//229 298//229 310//229
f 299//5 311//5 312//5
f 265//230 266//230 277//230
f 214//333 215//333 225//333
f 293//232 305//232 306//232
f 251//233 252//233 263//233
f 294//234 306//234 307//234
f 96//99 330//99 329//99
f 311//5 326//5 327//5
f 192//99 314//99 313//99
f 281//99 268//99 120//99
f 305//235 320//235 321//235
f 341//99 333//99 292//99
f 306//236 321//236 322//236
f 12//99 4//99 289//99
f 308//237 307//237 322//237
f 44//99 250//99 239//99
f 308//238 323//238 324//238
f 204//99 313//99 304//99
f 309//239 324//239 325//239
f 123//99 110//99 329//99
f 311//240 310//240 325//240
f 323//241 322//241 335//241
f 71//99 332//99 331//99
f 323//242 336//242 337//242
f 320//99 305//99 95//99
f 324//243 337//243 338//243
f 170//99 316//99 315//99
f 325//244 338//244 339//244
f 254//99 241//99 302//99
f 326//5 339//5 340//5
f 36//99 28//99 264//99
f 146//99 318//99 317//99
f 320//245 333//245 334//245
f 1//99 291//99 289//99
f 321//246 334//246 335//246
f 52//99 239//99 236//99
f 339//5 347//5 348//5
f 228//99 216//99 304//99
f 293//99 281//99 109//99
f 333//247 341//247 342//247
f 181//99 315//99 314//99
f 334//248 342//248 343//248
f 320//99 92//99 292//99
f 336//249 335//249 343//249
f 83//99 331//99 330//99
f 336//250 344//250 345//250
f 20//99 12//99 278//99
f 338//251 337//251 345//251
f 123//99 328//99 319//99
f 339//252 338//252 346//252
f 36//99 253//99 250//99
f 268//99 254//99 301//99
f 344//253 350//253 351//253
f 60//99 236//99 332//99
f 345//254 351//254 3//254
f 158//99 317//99 316//99
f 346//255 3//255 352//255
f 305//99 293//99 106//99
f 347//5 352//5 353//5
f 341//99 79//99 291//99
f 28//99 20//99 267//99
f 341//256 1//256 2//256
f 241//99 228//99 303//99
f 342//257 2//257 349//257
f 135//99 319//99 318//99
f 344//258 343//258 349//258
f 377//259 375//259 134//259
f 412//260 262//260 265//260
f 369//261 367//261 107//261
f 373//262 371//262 121//262
f 363//263 361//263 82//263
f 418//264 416//264 276//264
f 401//265 399//265 214//265
f 359//266 357//266 69//266
f 408//267 405//267 237//267
f 413//268 265//268 276//268
f 397//269 395//269 202//269
f 387//270 385//270 168//270
f 367//271 365//271 104//271
f 412//272 409//272 251//272
f 383//273 381//273 156//273
f 393//274 391//274 190//274
f 371//275 369//275 118//275
f 404//276 401//276 224//276
f 375//277 373//277 132//277
f 399//278 397//278 212//278
f 409//279 408//279 240//279
f 389//280 387//280 178//280
f 379//281 377//281 144//281
f 405//282 404//282 226//282
f 361//283 359//283 80//283
f 395//284 393//284 200//284
f 385//285 383//285 166//285
f 365//286 363//286 93//286
f 357//287 355//287 68//287
f 381//288 379//288 154//288
f 418//289 279//289 68//289
f 391//290 389//290 180//290
f 355//291 356//291 417//291
f 358//292 356//292 355//292
f 357//293 359//293 360//293
f 359//294 361//294 362//294
f 361//295 363//295 364//295
f 363//296 365//296 366//296
f 365//297 367//297 368//297
f 367//298 369//298 370//298
f 369//299 371//299 372//299
f 371//300 373//300 374//300
f 373//301 375//301 376//301
f 375//302 377//302 378//302
f 380//303 378//303 377//303
f 379//304 381//304 382//304
f 382//305 381//305 383//305
f 383//306 385//306 386//306
f 385//307 387//307 388//307
f 387//308 389//308 390//308
f 389//309 391//309 392//309
f 391//310 393//310 394//310
f 393//311 395//311 396//311
f 395//312 397//312 398//312
f 397//313 399//313 400//313
f 399//314 401//314 402//314
f 416//315 418//315 417//315
f 408//316 409//316 410//316
f 403//317 404//317 405//317
f 412//318 413//318 414//318
f 405//319 408//319 407//319
f 409//320 412//320 411//320
f 413//321 416//321 415//321
f 401//322 404//322 403//322
